1o2s/LSD/aulas/Aula4/Parte4/simulation/qsim/FreqDivider_Demo.msim.vcd
$comment
	File created using the following command:
		vcd file FreqDivider_Demo.msim.vcd -direction
$end
$date
	Tue Apr 05 11:53:01 2022
$end
$version
	ModelSim Version 2020.1
$end
$timescale
	1ps
$end

$scope module freqdivider_vhd_vec_tst $end
$var wire 1 ! clkIn $end
$var wire 1 " clkOut $end
$var wire 1 # k [31] $end
$var wire 1 $ k [30] $end
$var wire 1 % k [29] $end
$var wire 1 & k [28] $end
$var wire 1 ' k [27] $end
$var wire 1 ( k [26] $end
$var wire 1 ) k [25] $end
$var wire 1 * k [24] $end
$var wire 1 + k [23] $end
$var wire 1 , k [22] $end
$var wire 1 - k [21] $end
$var wire 1 . k [20] $end
$var wire 1 / k [19] $end
$var wire 1 0 k [18] $end
$var wire 1 1 k [17] $end
$var wire 1 2 k [16] $end
$var wire 1 3 k [15] $end
$var wire 1 4 k [14] $end
$var wire 1 5 k [13] $end
$var wire 1 6 k [12] $end
$var wire 1 7 k [11] $end
$var wire 1 8 k [10] $end
$var wire 1 9 k [9] $end
$var wire 1 : k [8] $end
$var wire 1 ; k [7] $end
$var wire 1 < k [6] $end
$var wire 1 = k [5] $end
$var wire 1 > k [4] $end
$var wire 1 ? k [3] $end
$var wire 1 @ k [2] $end
$var wire 1 A k [1] $end
$var wire 1 B k [0] $end
$var wire 1 C reset $end

$scope module i1 $end
$var wire 1 D gnd $end
$var wire 1 E vcc $end
$var wire 1 F unknown $end
$var wire 1 G devoe $end
$var wire 1 H devclrn $end
$var wire 1 I devpor $end
$var wire 1 J ww_devoe $end
$var wire 1 K ww_devclrn $end
$var wire 1 L ww_devpor $end
$var wire 1 M ww_clkIn $end
$var wire 1 N ww_reset $end
$var wire 1 O ww_k [31] $end
$var wire 1 P ww_k [30] $end
$var wire 1 Q ww_k [29] $end
$var wire 1 R ww_k [28] $end
$var wire 1 S ww_k [27] $end
$var wire 1 T ww_k [26] $end
$var wire 1 U ww_k [25] $end
$var wire 1 V ww_k [24] $end
$var wire 1 W ww_k [23] $end
$var wire 1 X ww_k [22] $end
$var wire 1 Y ww_k [21] $end
$var wire 1 Z ww_k [20] $end
$var wire 1 [ ww_k [19] $end
$var wire 1 \ ww_k [18] $end
$var wire 1 ] ww_k [17] $end
$var wire 1 ^ ww_k [16] $end
$var wire 1 _ ww_k [15] $end
$var wire 1 ` ww_k [14] $end
$var wire 1 a ww_k [13] $end
$var wire 1 b ww_k [12] $end
$var wire 1 c ww_k [11] $end
$var wire 1 d ww_k [10] $end
$var wire 1 e ww_k [9] $end
$var wire 1 f ww_k [8] $end
$var wire 1 g ww_k [7] $end
$var wire 1 h ww_k [6] $end
$var wire 1 i ww_k [5] $end
$var wire 1 j ww_k [4] $end
$var wire 1 k ww_k [3] $end
$var wire 1 l ww_k [2] $end
$var wire 1 m ww_k [1] $end
$var wire 1 n ww_k [0] $end
$var wire 1 o ww_clkOut $end
$var wire 1 p \clkOut~output_o\ $end
$var wire 1 q \clkIn~input_o\ $end
$var wire 1 r \s_counter[0]~31_combout\ $end
$var wire 1 s \reset~input_o\ $end
$var wire 1 t \k[0]~input_o\ $end
$var wire 1 u \Add0~0_combout\ $end
$var wire 1 v \k[1]~input_o\ $end
$var wire 1 w \Add0~1\ $end
$var wire 1 x \Add0~2_combout\ $end
$var wire 1 y \s_counter[0]~32\ $end
$var wire 1 z \s_counter[1]~33_combout\ $end
$var wire 1 { \Equal0~0_combout\ $end
$var wire 1 | \k[2]~input_o\ $end
$var wire 1 } \Add0~3\ $end
$var wire 1 ~ \Add0~4_combout\ $end
$var wire 1 !! \k[3]~input_o\ $end
$var wire 1 "! \Add0~5\ $end
$var wire 1 #! \Add0~6_combout\ $end
$var wire 1 $! \s_counter[1]~34\ $end
$var wire 1 %! \s_counter[2]~35_combout\ $end
$var wire 1 &! \s_counter[2]~36\ $end
$var wire 1 '! \s_counter[3]~37_combout\ $end
$var wire 1 (! \Equal0~1_combout\ $end
$var wire 1 )! \k[4]~input_o\ $end
$var wire 1 *! \Add0~7\ $end
$var wire 1 +! \Add0~8_combout\ $end
$var wire 1 ,! \k[5]~input_o\ $end
$var wire 1 -! \Add0~9\ $end
$var wire 1 .! \Add0~10_combout\ $end
$var wire 1 /! \s_counter[3]~38\ $end
$var wire 1 0! \s_counter[4]~39_combout\ $end
$var wire 1 1! \s_counter[4]~40\ $end
$var wire 1 2! \s_counter[5]~41_combout\ $end
$var wire 1 3! \Equal0~2_combout\ $end
$var wire 1 4! \k[6]~input_o\ $end
$var wire 1 5! \Add0~11\ $end
$var wire 1 6! \Add0~12_combout\ $end
$var wire 1 7! \k[7]~input_o\ $end
$var wire 1 8! \Add0~13\ $end
$var wire 1 9! \Add0~14_combout\ $end
$var wire 1 :! \s_counter[5]~42\ $end
$var wire 1 ;! \s_counter[6]~43_combout\ $end
$var wire 1 <! \s_counter[6]~44\ $end
$var wire 1 =! \s_counter[7]~45_combout\ $end
$var wire 1 >! \Equal0~3_combout\ $end
$var wire 1 ?! \Equal0~4_combout\ $end
$var wire 1 @! \k[8]~input_o\ $end
$var wire 1 A! \Add0~15\ $end
$var wire 1 B! \Add0~16_combout\ $end
$var wire 1 C! \k[9]~input_o\ $end
$var wire 1 D! \Add0~17\ $end
$var wire 1 E! \Add0~18_combout\ $end
$var wire 1 F! \s_counter[7]~46\ $end
$var wire 1 G! \s_counter[8]~47_combout\ $end
$var wire 1 H! \s_counter[8]~48\ $end
$var wire 1 I! \s_counter[9]~49_combout\ $end
$var wire 1 J! \Equal0~5_combout\ $end
$var wire 1 K! \k[10]~input_o\ $end
$var wire 1 L! \Add0~19\ $end
$var wire 1 M! \Add0~20_combout\ $end
$var wire 1 N! \k[11]~input_o\ $end
$var wire 1 O! \Add0~21\ $end
$var wire 1 P! \Add0~22_combout\ $end
$var wire 1 Q! \s_counter[9]~50\ $end
$var wire 1 R! \s_counter[10]~51_combout\ $end
$var wire 1 S! \s_counter[10]~52\ $end
$var wire 1 T! \s_counter[11]~53_combout\ $end
$var wire 1 U! \Equal0~6_combout\ $end
$var wire 1 V! \k[12]~input_o\ $end
$var wire 1 W! \Add0~23\ $end
$var wire 1 X! \Add0~24_combout\ $end
$var wire 1 Y! \k[13]~input_o\ $end
$var wire 1 Z! \Add0~25\ $end
$var wire 1 [! \Add0~26_combout\ $end
$var wire 1 \! \s_counter[11]~54\ $end
$var wire 1 ]! \s_counter[12]~55_combout\ $end
$var wire 1 ^! \s_counter[12]~56\ $end
$var wire 1 _! \s_counter[13]~57_combout\ $end
$var wire 1 `! \Equal0~7_combout\ $end
$var wire 1 a! \k[14]~input_o\ $end
$var wire 1 b! \Add0~27\ $end
$var wire 1 c! \Add0~28_combout\ $end
$var wire 1 d! \k[15]~input_o\ $end
$var wire 1 e! \Add0~29\ $end
$var wire 1 f! \Add0~30_combout\ $end
$var wire 1 g! \s_counter[13]~58\ $end
$var wire 1 h! \s_counter[14]~59_combout\ $end
$var wire 1 i! \s_counter[14]~60\ $end
$var wire 1 j! \s_counter[15]~61_combout\ $end
$var wire 1 k! \Equal0~8_combout\ $end
$var wire 1 l! \Equal0~9_combout\ $end
$var wire 1 m! \k[16]~input_o\ $end
$var wire 1 n! \Add0~31\ $end
$var wire 1 o! \Add0~32_combout\ $end
$var wire 1 p! \k[17]~input_o\ $end
$var wire 1 q! \Add0~33\ $end
$var wire 1 r! \Add0~34_combout\ $end
$var wire 1 s! \s_counter[15]~62\ $end
$var wire 1 t! \s_counter[16]~63_combout\ $end
$var wire 1 u! \s_counter[16]~64\ $end
$var wire 1 v! \s_counter[17]~65_combout\ $end
$var wire 1 w! \Equal0~10_combout\ $end
$var wire 1 x! \k[18]~input_o\ $end
$var wire 1 y! \Add0~35\ $end
$var wire 1 z! \Add0~36_combout\ $end
$var wire 1 {! \k[19]~input_o\ $end
$var wire 1 |! \Add0~37\ $end
$var wire 1 }! \Add0~38_combout\ $end
$var wire 1 ~! \s_counter[17]~66\ $end
$var wire 1 !" \s_counter[18]~67_combout\ $end
$var wire 1 "" \s_counter[18]~68\ $end
$var wire 1 #" \s_counter[19]~69_combout\ $end
$var wire 1 $" \Equal0~11_combout\ $end
$var wire 1 %" \k[20]~input_o\ $end
$var wire 1 &" \Add0~39\ $end
$var wire 1 '" \Add0~40_combout\ $end
$var wire 1 (" \k[21]~input_o\ $end
$var wire 1 )" \Add0~41\ $end
$var wire 1 *" \Add0~42_combout\ $end
$var wire 1 +" \s_counter[19]~70\ $end
$var wire 1 ," \s_counter[20]~71_combout\ $end
$var wire 1 -" \s_counter[20]~72\ $end
$var wire 1 ." \s_counter[21]~73_combout\ $end
$var wire 1 /" \Equal0~12_combout\ $end
$var wire 1 0" \k[22]~input_o\ $end
$var wire 1 1" \Add0~43\ $end
$var wire 1 2" \Add0~44_combout\ $end
$var wire 1 3" \k[23]~input_o\ $end
$var wire 1 4" \Add0~45\ $end
$var wire 1 5" \Add0~46_combout\ $end
$var wire 1 6" \s_counter[21]~74\ $end
$var wire 1 7" \s_counter[22]~75_combout\ $end
$var wire 1 8" \s_counter[22]~76\ $end
$var wire 1 9" \s_counter[23]~77_combout\ $end
$var wire 1 :" \Equal0~13_combout\ $end
$var wire 1 ;" \Equal0~14_combout\ $end
$var wire 1 <" \k[24]~input_o\ $end
$var wire 1 =" \Add0~47\ $end
$var wire 1 >" \Add0~48_combout\ $end
$var wire 1 ?" \k[25]~input_o\ $end
$var wire 1 @" \Add0~49\ $end
$var wire 1 A" \Add0~50_combout\ $end
$var wire 1 B" \s_counter[23]~78\ $end
$var wire 1 C" \s_counter[24]~79_combout\ $end
$var wire 1 D" \s_counter[24]~80\ $end
$var wire 1 E" \s_counter[25]~81_combout\ $end
$var wire 1 F" \Equal0~15_combout\ $end
$var wire 1 G" \k[26]~input_o\ $end
$var wire 1 H" \Add0~51\ $end
$var wire 1 I" \Add0~52_combout\ $end
$var wire 1 J" \k[27]~input_o\ $end
$var wire 1 K" \Add0~53\ $end
$var wire 1 L" \Add0~54_combout\ $end
$var wire 1 M" \s_counter[25]~82\ $end
$var wire 1 N" \s_counter[26]~83_combout\ $end
$var wire 1 O" \s_counter[26]~84\ $end
$var wire 1 P" \s_counter[27]~85_combout\ $end
$var wire 1 Q" \Equal0~16_combout\ $end
$var wire 1 R" \k[28]~input_o\ $end
$var wire 1 S" \Add0~55\ $end
$var wire 1 T" \Add0~56_combout\ $end
$var wire 1 U" \k[29]~input_o\ $end
$var wire 1 V" \Add0~57\ $end
$var wire 1 W" \Add0~58_combout\ $end
$var wire 1 X" \s_counter[27]~86\ $end
$var wire 1 Y" \s_counter[28]~87_combout\ $end
$var wire 1 Z" \s_counter[28]~88\ $end
$var wire 1 [" \s_counter[29]~89_combout\ $end
$var wire 1 \" \Equal0~17_combout\ $end
$var wire 1 ]" \k[30]~input_o\ $end
$var wire 1 ^" \Add0~59\ $end
$var wire 1 _" \Add0~60_combout\ $end
$var wire 1 `" \s_counter[29]~90\ $end
$var wire 1 a" \s_counter[30]~91_combout\ $end
$var wire 1 b" \k[31]~input_o\ $end
$var wire 1 c" \Add0~61\ $end
$var wire 1 d" \Add0~62_combout\ $end
$var wire 1 e" \Equal0~18_combout\ $end
$var wire 1 f" \Equal0~19_combout\ $end
$var wire 1 g" \process_0~0_combout\ $end
$var wire 1 h" \Add1~1\ $end
$var wire 1 i" \Add1~2_combout\ $end
$var wire 1 j" \Add1~0_combout\ $end
$var wire 1 k" \clkOut~0_combout\ $end
$var wire 1 l" \Add1~3\ $end
$var wire 1 m" \Add1~5\ $end
$var wire 1 n" \Add1~6_combout\ $end
$var wire 1 o" \Add1~4_combout\ $end
$var wire 1 p" \clkOut~1_combout\ $end
$var wire 1 q" \Add1~7\ $end
$var wire 1 r" \Add1~9\ $end
$var wire 1 s" \Add1~10_combout\ $end
$var wire 1 t" \Add1~8_combout\ $end
$var wire 1 u" \clkOut~2_combout\ $end
$var wire 1 v" \Add1~11\ $end
$var wire 1 w" \Add1~13\ $end
$var wire 1 x" \Add1~14_combout\ $end
$var wire 1 y" \Add1~12_combout\ $end
$var wire 1 z" \clkOut~3_combout\ $end
$var wire 1 {" \clkOut~4_combout\ $end
$var wire 1 |" \Add1~15\ $end
$var wire 1 }" \Add1~17\ $end
$var wire 1 ~" \Add1~18_combout\ $end
$var wire 1 !# \Add1~16_combout\ $end
$var wire 1 "# \clkOut~5_combout\ $end
$var wire 1 ## \Add1~19\ $end
$var wire 1 $# \Add1~21\ $end
$var wire 1 %# \Add1~22_combout\ $end
$var wire 1 &# \Add1~20_combout\ $end
$var wire 1 '# \clkOut~6_combout\ $end
$var wire 1 (# \Add1~23\ $end
$var wire 1 )# \Add1~25\ $end
$var wire 1 *# \Add1~26_combout\ $end
$var wire 1 +# \Add1~24_combout\ $end
$var wire 1 ,# \clkOut~7_combout\ $end
$var wire 1 -# \Add1~27\ $end
$var wire 1 .# \Add1~29\ $end
$var wire 1 /# \Add1~30_combout\ $end
$var wire 1 0# \Add1~28_combout\ $end
$var wire 1 1# \Equal1~0_combout\ $end
$var wire 1 2# \clkOut~8_combout\ $end
$var wire 1 3# \clkOut~9_combout\ $end
$var wire 1 4# \Add1~31\ $end
$var wire 1 5# \Add1~33\ $end
$var wire 1 6# \Add1~34_combout\ $end
$var wire 1 7# \Add1~32_combout\ $end
$var wire 1 8# \clkOut~10_combout\ $end
$var wire 1 9# \Add1~35\ $end
$var wire 1 :# \Add1~37\ $end
$var wire 1 ;# \Add1~38_combout\ $end
$var wire 1 <# \Add1~36_combout\ $end
$var wire 1 =# \clkOut~11_combout\ $end
$var wire 1 ># \Add1~39\ $end
$var wire 1 ?# \Add1~41\ $end
$var wire 1 @# \Add1~42_combout\ $end
$var wire 1 A# \Add1~40_combout\ $end
$var wire 1 B# \clkOut~12_combout\ $end
$var wire 1 C# \Add1~43\ $end
$var wire 1 D# \Add1~45\ $end
$var wire 1 E# \Add1~46_combout\ $end
$var wire 1 F# \Add1~44_combout\ $end
$var wire 1 G# \clkOut~13_combout\ $end
$var wire 1 H# \clkOut~14_combout\ $end
$var wire 1 I# \Add1~47\ $end
$var wire 1 J# \Add1~49\ $end
$var wire 1 K# \Add1~50_combout\ $end
$var wire 1 L# \Add1~48_combout\ $end
$var wire 1 M# \clkOut~15_combout\ $end
$var wire 1 N# \Add1~51\ $end
$var wire 1 O# \Add1~53\ $end
$var wire 1 P# \Add1~54_combout\ $end
$var wire 1 Q# \Add1~52_combout\ $end
$var wire 1 R# \clkOut~16_combout\ $end
$var wire 1 S# \Add1~55\ $end
$var wire 1 T# \Add1~57\ $end
$var wire 1 U# \Add1~58_combout\ $end
$var wire 1 V# \Add1~56_combout\ $end
$var wire 1 W# \clkOut~17_combout\ $end
$var wire 1 X# \Add1~59\ $end
$var wire 1 Y# \Add1~60_combout\ $end
$var wire 1 Z# \Add1~61\ $end
$var wire 1 [# \Add1~62_combout\ $end
$var wire 1 \# \clkOut~18_combout\ $end
$var wire 1 ]# \clkOut~19_combout\ $end
$var wire 1 ^# \clkOut~20_combout\ $end
$var wire 1 _# \clkOut~reg0_q\ $end
$var wire 1 `# s_counter [30] $end
$var wire 1 a# s_counter [29] $end
$var wire 1 b# s_counter [28] $end
$var wire 1 c# s_counter [27] $end
$var wire 1 d# s_counter [26] $end
$var wire 1 e# s_counter [25] $end
$var wire 1 f# s_counter [24] $end
$var wire 1 g# s_counter [23] $end
$var wire 1 h# s_counter [22] $end
$var wire 1 i# s_counter [21] $end
$var wire 1 j# s_counter [20] $end
$var wire 1 k# s_counter [19] $end
$var wire 1 l# s_counter [18] $end
$var wire 1 m# s_counter [17] $end
$var wire 1 n# s_counter [16] $end
$var wire 1 o# s_counter [15] $end
$var wire 1 p# s_counter [14] $end
$var wire 1 q# s_counter [13] $end
$var wire 1 r# s_counter [12] $end
$var wire 1 s# s_counter [11] $end
$var wire 1 t# s_counter [10] $end
$var wire 1 u# s_counter [9] $end
$var wire 1 v# s_counter [8] $end
$var wire 1 w# s_counter [7] $end
$var wire 1 x# s_counter [6] $end
$var wire 1 y# s_counter [5] $end
$var wire 1 z# s_counter [4] $end
$var wire 1 {# s_counter [3] $end
$var wire 1 |# s_counter [2] $end
$var wire 1 }# s_counter [1] $end
$var wire 1 ~# s_counter [0] $end
$upscope $end
$upscope $end
$enddefinitions $end
#0
$dumpvars
0!
0"
0C
0D
1E
xF
1G
1H
1I
1J
1K
1L
0M
0N
0o
0p
0q
1r
0s
0t
1u
0v
0w
1x
0y
0z
0{
1|
1}
0~
0!!
1"!
0#!
1$!
0%!
0&!
0'!
1(!
0)!
0*!
0+!
0,!
1-!
0.!
1/!
00!
01!
02!
13!
04!
05!
06!
07!
18!
09!
1:!
0;!
0<!
0=!
1>!
0?!
0@!
0A!
0B!
0C!
1D!
0E!
1F!
0G!
0H!
0I!
1J!
0K!
0L!
0M!
0N!
1O!
0P!
1Q!
0R!
0S!
0T!
1U!
0V!
0W!
0X!
0Y!
1Z!
0[!
1\!
0]!
0^!
0_!
1`!
0a!
0b!
0c!
0d!
1e!
0f!
1g!
0h!
0i!
0j!
1k!
1l!
0m!
0n!
0o!
0p!
1q!
0r!
1s!
0t!
0u!
0v!
1w!
0x!
0y!
0z!
0{!
1|!
0}!
1~!
0!"
0""
0#"
1$"
0%"
0&"
0'"
0("
1)"
0*"
1+"
0,"
0-"
0."
1/"
00"
01"
02"
03"
14"
05"
16"
07"
08"
09"
1:"
1;"
0<"
0="
0>"
0?"
1@"
0A"
1B"
0C"
0D"
0E"
1F"
0G"
0H"
0I"
0J"
1K"
0L"
1M"
0N"
0O"
0P"
1Q"
0R"
0S"
0T"
0U"
1V"
0W"
1X"
0Y"
0Z"
0["
1\"
0]"
0^"
0_"
1`"
0a"
0b"
1c"
0d"
1e"
1f"
0g"
0h"
0i"
1j"
0k"
0l"
1m"
0n"
0o"
1p"
0q"
1r"
0s"
0t"
1u"
0v"
1w"
0x"
0y"
1z"
0{"
0|"
1}"
0~"
0!#
1"#
0##
1$#
0%#
0&#
1'#
0(#
1)#
0*#
0+#
1,#
0-#
1.#
0/#
00#
01#
12#
03#
04#
15#
06#
07#
18#
09#
1:#
0;#
0<#
1=#
0>#
1?#
0@#
0A#
1B#
0C#
1D#
0E#
0F#
1G#
1H#
0I#
1J#
0K#
0L#
1M#
0N#
1O#
0P#
0Q#
1R#
0S#
1T#
0U#
0V#
1W#
0X#
0Y#
1Z#
0[#
1\#
1]#
0^#
0_#
0#
0$
0%
0&
0'
0(
0)
0*
0+
0,
0-
0.
0/
00
01
02
03
04
05
06
07
08
09
0:
0;
0<
0=
0>
0?
1@
0A
0B
0O
0P
0Q
0R
0S
0T
0U
0V
0W
0X
0Y
0Z
0[
0\
0]
0^
0_
0`
0a
0b
0c
0d
0e
0f
0g
0h
0i
0j
0k
1l
0m
0n
0`#
0a#
0b#
0c#
0d#
0e#
0f#
0g#
0h#
0i#
0j#
0k#
0l#
0m#
0n#
0o#
0p#
0q#
0r#
0s#
0t#
0u#
0v#
0w#
0x#
0y#
0z#
0{#
0|#
0}#
0~#
$end
#10000
1!
1M
1q
1~#
0r
1y
1k"
1{"
1z
13#
1^#
#20000
0!
0M
0q
#30000
1!
1M
1q
1}#
0~#
1_#
1r
0y
0z
0$!
0k"
0{"
1%!
1z
1$!
1p
0%!
03#
1o
1"
#40000
0!
0M
0q
#50000
1!
1M
1q
1~#
0r
1y
1{
1?!
0z
0$!
1%!
1g"
0^#
#60000
0!
0M
0q
#70000
1!
1M
1q
0}#
0~#
0_#
1r
0y
1z
1$!
0{
0?!
0%!
0z
0p
0g"
0o
0"
#80000
0!
0M
0q
#90000
1!
1M
1q
1~#
0r
1y
1k"
1{"
1z
13#
1^#
#100000
0!
0M
0q
#110000
1!
1M
1q
1}#
0~#
1_#
1r
0y
0z
0$!
0k"
0{"
1%!
1z
1$!
1p
0%!
03#
1o
1"
#120000
0!
0M
0q
#130000
1!
1M
1q
1~#
0r
1y
1{
1?!
0z
0$!
1%!
1g"
0^#
#140000
0!
0M
0q
#150000
1!
1M
1q
0}#
0~#
0_#
1r
0y
1z
1$!
0{
0?!
0%!
0z
0p
0g"
0o
0"
#160000
0!
0M
0q
#170000
1!
1M
1q
1~#
0r
1y
1k"
1{"
1z
13#
1^#
#180000
0!
0M
0q
#190000
1!
1M
1q
1}#
0~#
1_#
1r
0y
0z
0$!
0k"
0{"
1%!
1z
1$!
1p
0%!
03#
1o
1"
#200000
0!
0M
0q
#210000
1!
1M
1q
1~#
0r
1y
1{
1?!
0z
0$!
1%!
1g"
0^#
#220000
0!
0M
0q
#230000
1!
1M
1q
0}#
0~#
0_#
1r
0y
1z
1$!
0{
0?!
0%!
0z
0p
0g"
0o
0"
#240000
0!
0M
0q
#250000
1!
1M
1q
1~#
0r
1y
1k"
1{"
1z
13#
1^#
#260000
0!
0M
0q
#270000
1!
1M
1q
1}#
0~#
1_#
1r
0y
0z
0$!
0k"
0{"
1%!
1z
1$!
1p
0%!
03#
1o
1"
#280000
0!
0M
0q
#290000
1!
1M
1q
1~#
0r
1y
1{
1?!
0z
0$!
1%!
1g"
0^#
#300000
0!
0M
0q
#310000
1!
1M
1q
0}#
0~#
0_#
1r
0y
1z
1$!
0{
0?!
0%!
0z
0p
0g"
0o
0"
#320000
0!
0M
0q
#330000
1!
1M
1q
1~#
0r
1y
1k"
1{"
1z
13#
1^#
#340000
0!
0M
0q
#350000
1!
1M
1q
1}#
0~#
1_#
1r
0y
0z
0$!
0k"
0{"
1%!
1z
1$!
1p
0%!
03#
1o
1"
#360000
0!
0M
0q
#370000
1!
1M
1q
1~#
0r
1y
1{
1?!
0z
0$!
1%!
1g"
0^#
#380000
0!
0M
0q
#390000
1!
1M
1q
0}#
0~#
0_#
1r
0y
1z
1$!
0{
0?!
0%!
0z
0p
0g"
0o
0"
#400000
0!
0M
0q
#410000
1!
1M
1q
1~#
0r
1y
1k"
1{"
1z
13#
1^#
#420000
0!
0M
0q
#430000
1!
1M
1q
1}#
0~#
1_#
1r
0y
0z
0$!
0k"
0{"
1%!
1z
1$!
1p
0%!
03#
1o
1"
#440000
0!
0M
0q
#450000
1!
1M
1q
1~#
0r
1y
1{
1?!
0z
0$!
1%!
1g"
0^#
#460000
0!
0M
0q
#470000
1!
1M
1q
0}#
0~#
0_#
1r
0y
1z
1$!
0{
0?!
0%!
0z
0p
0g"
0o
0"
#480000
0!
0M
0q
#490000
1!
1M
1q
1~#
0r
1y
1k"
1{"
1z
13#
1^#
#500000
0!
0M
0q
#510000
1!
1M
1q
1}#
0~#
1_#
1r
0y
0z
0$!
0k"
0{"
1%!
1z
1$!
1p
0%!
03#
1o
1"
#520000
0!
0M
0q
#530000
1!
1M
1q
1~#
0r
1y
1{
1?!
0z
0$!
1%!
1g"
0^#
#540000
0!
0M
0q
#550000
1!
1M
1q
0}#
0~#
0_#
1r
0y
1z
1$!
0{
0?!
0%!
0z
0p
0g"
0o
0"
#560000
0!
0M
0q
#570000
1!
1M
1q
1~#
0r
1y
1k"
1{"
1z
13#
1^#
#580000
0!
0M
0q
#590000
1!
1M
1q
1}#
0~#
1_#
1r
0y
0z
0$!
0k"
0{"
1%!
1z
1$!
1p
0%!
03#
1o
1"
#600000
0!
0M
0q
#610000
1!
1M
1q
1~#
0r
1y
1{
1?!
0z
0$!
1%!
1g"
0^#
#620000
0!
0M
0q
#630000
1!
1M
1q
0}#
0~#
0_#
1r
0y
1z
1$!
0{
0?!
0%!
0z
0p
0g"
0o
0"
#640000
0!
0M
0q
#650000
1!
1M
1q
1~#
0r
1y
1k"
1{"
1z
13#
1^#
#660000
0!
0M
0q
#670000
1!
1M
1q
1}#
0~#
1_#
1r
0y
0z
0$!
0k"
0{"
1%!
1z
1$!
1p
0%!
03#
1o
1"
#680000
0!
0M
0q
#690000
1!
1M
1q
1~#
0r
1y
1{
1?!
0z
0$!
1%!
1g"
0^#
#700000
0!
0M
0q
#710000
1!
1M
1q
0}#
0~#
0_#
1r
0y
1z
1$!
0{
0?!
0%!
0z
0p
0g"
0o
0"
#720000
0!
0M
0q
#730000
1!
1M
1q
1~#
0r
1y
1k"
1{"
1z
13#
1^#
#740000
0!
0M
0q
#750000
1!
1M
1q
1}#
0~#
1_#
1r
0y
0z
0$!
0k"
0{"
1%!
1z
1$!
1p
0%!
03#
1o
1"
#760000
0!
0M
0q
#770000
1!
1M
1q
1~#
0r
1y
1{
1?!
0z
0$!
1%!
1g"
0^#
#780000
0!
0M
0q
#790000
1!
1M
1q
0}#
0~#
0_#
1r
0y
1z
1$!
0{
0?!
0%!
0z
0p
0g"
0o
0"
#800000
0!
0M
0q
#810000
1!
1M
1q
1~#
0r
1y
1k"
1{"
1z
13#
1^#
#820000
0!
0M
0q
#830000
1!
1M
1q
1}#
0~#
1_#
1r
0y
0z
0$!
0k"
0{"
1%!
1z
1$!
1p
0%!
03#
1o
1"
#840000
0!
0M
0q
#850000
1!
1M
1q
1~#
0r
1y
1{
1?!
0z
0$!
1%!
1g"
0^#
#860000
0!
0M
0q
#870000
1!
1M
1q
0}#
0~#
0_#
1r
0y
1z
1$!
0{
0?!
0%!
0z
0p
0g"
0o
0"
#880000
0!
0M
0q
#890000
1!
1M
1q
1~#
0r
1y
1k"
1{"
1z
13#
1^#
#900000
0!
0M
0q
#910000
1!
1M
1q
1}#
0~#
1_#
1r
0y
0z
0$!
0k"
0{"
1%!
1z
1$!
1p
0%!
03#
1o
1"
#920000
0!
0M
0q
#930000
1!
1M
1q
1~#
0r
1y
1{
1?!
0z
0$!
1%!
1g"
0^#
#940000
0!
0M
0q
#950000
1!
1M
1q
0}#
0~#
0_#
1r
0y
1z
1$!
0{
0?!
0%!
0z
0p
0g"
0o
0"
#960000
0!
0M
0q
#970000
1!
1M
1q
1~#
0r
1y
1k"
1{"
1z
13#
1^#
#980000
0!
0M
0q
#990000
1!
1M
1q
1}#
0~#
1_#
1r
0y
0z
0$!
0k"
0{"
1%!
1z
1$!
1p
0%!
03#
1o
1"
