1o2s/LSD/aulas/Aula6/Parte1/simulation/qsim/ShiftRegister_Demo.msim.vcd
$comment
	File created using the following command:
		vcd file ShiftRegister_Demo.msim.vcd -direction
$end
$date
	Tue May 03 10:01:19 2022
$end
$version
	ModelSim Version 2020.1
$end
$timescale
	1ps
$end

$scope module shiftregister4_vhd_vec_tst $end
$var wire 1 ! clk $end
$var wire 1 " dataOut [3] $end
$var wire 1 # dataOut [2] $end
$var wire 1 $ dataOut [1] $end
$var wire 1 % dataOut [0] $end
$var wire 1 & sin $end

$scope module i1 $end
$var wire 1 ' gnd $end
$var wire 1 ( vcc $end
$var wire 1 ) unknown $end
$var wire 1 * devoe $end
$var wire 1 + devclrn $end
$var wire 1 , devpor $end
$var wire 1 - ww_devoe $end
$var wire 1 . ww_devclrn $end
$var wire 1 / ww_devpor $end
$var wire 1 0 ww_clk $end
$var wire 1 1 ww_sin $end
$var wire 1 2 ww_dataOut [3] $end
$var wire 1 3 ww_dataOut [2] $end
$var wire 1 4 ww_dataOut [1] $end
$var wire 1 5 ww_dataOut [0] $end
$var wire 1 6 \dataOut[0]~output_o\ $end
$var wire 1 7 \dataOut[1]~output_o\ $end
$var wire 1 8 \dataOut[2]~output_o\ $end
$var wire 1 9 \dataOut[3]~output_o\ $end
$var wire 1 : \clk~input_o\ $end
$var wire 1 ; \sin~input_o\ $end
$var wire 1 < s_dataOut [3] $end
$var wire 1 = s_dataOut [2] $end
$var wire 1 > s_dataOut [1] $end
$var wire 1 ? s_dataOut [0] $end
$upscope $end
$upscope $end
$enddefinitions $end
#0
$dumpvars
0!
0&
0'
1(
x)
1*
1+
1,
1-
1.
1/
00
01
06
07
08
09
0:
0;
02
03
04
05
0<
0=
0>
0?
0"
0#
0$
0%
$end
#40000
1!
10
1:
#80000
0!
00
0:
#110000
1&
11
1;
#120000
1!
10
1:
1?
16
15
1%
#160000
0!
00
0:
#170000
0&
01
0;
#200000
1!
10
1:
0?
1>
17
06
14
05
0%
1$
#240000
0!
00
0:
#280000
1!
10
1:
0>
1=
18
07
13
04
0$
1#
#320000
0!
00
0:
#350000
1&
11
1;
#360000
1!
10
1:
1?
0=
1<
19
08
16
12
03
15
1%
0#
1"
#400000
0!
0&
00
01
0;
0:
#430000
1&
11
1;
#440000
1!
10
1:
1>
0<
09
17
02
14
1$
0"
#480000
0!
0&
00
01
0;
0:
#520000
1!
10
1:
0?
1=
18
06
13
05
0%
1#
#560000
0!
00
0:
#600000
1!
10
1:
0>
1<
19
07
12
04
0$
1"
#640000
0!
00
0:
#680000
1!
10
1:
0=
08
03
0#
#720000
0!
00
0:
#760000
1!
10
1:
0<
09
02
0"
#800000
0!
00
0:
#840000
1!
10
1:
#880000
0!
00
0:
#920000
1!
10
1:
#960000
0!
00
0:
