1o2s/LSD/aulas/Aula4/Parte1/simulation/qsim/FlipFlopD_Demo.msim.vcd
$comment
	File created using the following command:
		vcd file FlipFlopD_Demo.msim.vcd -direction
$end
$date
	Sun Apr 03 16:41:51 2022
$end
$version
	ModelSim Version 2020.1
$end
$timescale
	1ps
$end

$scope module flipflopd_vhd_vec_tst $end
$var wire 1 ! clk $end
$var wire 1 " d $end
$var wire 1 # q $end
$var wire 1 $ reset $end
$var wire 1 % set $end

$scope module i1 $end
$var wire 1 & gnd $end
$var wire 1 ' vcc $end
$var wire 1 ( unknown $end
$var wire 1 ) devoe $end
$var wire 1 * devclrn $end
$var wire 1 + devpor $end
$var wire 1 , ww_devoe $end
$var wire 1 - ww_devclrn $end
$var wire 1 . ww_devpor $end
$var wire 1 / ww_clk $end
$var wire 1 0 ww_d $end
$var wire 1 1 ww_set $end
$var wire 1 2 ww_reset $end
$var wire 1 3 ww_q $end
$var wire 1 4 \q~output_o\ $end
$var wire 1 5 \clk~input_o\ $end
$var wire 1 6 \d~input_o\ $end
$var wire 1 7 \set~input_o\ $end
$var wire 1 8 \reset~input_o\ $end
$var wire 1 9 \q~0_combout\ $end
$var wire 1 : \q~reg0_q\ $end
$upscope $end
$upscope $end
$enddefinitions $end
#0
$dumpvars
0!
0"
0#
0$
1%
0&
1'
x(
1)
1*
1+
1,
1-
1.
0/
00
11
02
03
04
05
06
17
08
09
0:
$end
#30000
1"
10
16
19
#50000
1!
1/
15
1:
14
13
1#
#60000
0"
00
06
09
#90000
1"
10
16
19
#100000
0!
0/
05
#120000
0"
00
06
09
#150000
1!
1/
15
0:
04
03
0#
#200000
0!
0/
05
#250000
1!
1/
15
#300000
0!
1"
0/
10
16
05
19
#350000
1!
1/
15
1:
14
13
1#
#360000
0"
00
06
09
#400000
0!
0/
05
#450000
1!
1/
15
0:
04
03
0#
#480000
1"
10
16
19
#500000
0!
0/
05
#510000
0"
00
06
09
#550000
1!
1/
15
#570000
1"
10
16
19
#600000
0"
0!
00
0/
05
06
09
#650000
1!
1/
15
#690000
1"
10
16
19
#700000
0!
0/
05
#750000
1!
1/
15
1:
14
13
1#
#800000
0!
0/
05
#810000
0"
00
06
09
#840000
1"
10
16
19
#850000
1!
1/
15
#870000
0"
00
06
09
#900000
0!
0/
05
#930000
1"
10
16
19
#950000
1!
1/
15
