1o2s/LSD/aulas/Aula5/Parte3/simulation/qsim/TimerN_Demo.msim.vcd
$comment
	File created using the following command:
		vcd file TimerN_Demo.msim.vcd -direction
$end
$date
	Thu Apr 21 18:44:42 2022
$end
$version
	ModelSim Version 2020.1
$end
$timescale
	1ps
$end

$scope module timern_vhd_vec_tst $end
$var wire 1 ! clk $end
$var wire 1 " enable $end
$var wire 1 # reset $end
$var wire 1 $ start $end
$var wire 1 % timerOut $end

$scope module i1 $end
$var wire 1 & gnd $end
$var wire 1 ' vcc $end
$var wire 1 ( unknown $end
$var wire 1 ) devoe $end
$var wire 1 * devclrn $end
$var wire 1 + devpor $end
$var wire 1 , ww_devoe $end
$var wire 1 - ww_devclrn $end
$var wire 1 . ww_devpor $end
$var wire 1 / ww_clk $end
$var wire 1 0 ww_reset $end
$var wire 1 1 ww_enable $end
$var wire 1 2 ww_start $end
$var wire 1 3 ww_timerOut $end
$var wire 1 4 \timerOut~output_o\ $end
$var wire 1 5 \clk~input_o\ $end
$var wire 1 6 \reset~input_o\ $end
$var wire 1 7 \enable~input_o\ $end
$var wire 1 8 \s_count[0]~32_combout\ $end
$var wire 1 9 \s_count[0]~33\ $end
$var wire 1 : \s_count[1]~36_combout\ $end
$var wire 1 ; \start~input_o\ $end
$var wire 1 < \s_count[0]~35_combout\ $end
$var wire 1 = \s_count[1]~37\ $end
$var wire 1 > \s_count[2]~38_combout\ $end
$var wire 1 ? \s_count[2]~39\ $end
$var wire 1 @ \s_count[3]~40_combout\ $end
$var wire 1 A \timerOut~0_combout\ $end
$var wire 1 B \s_count[0]~34_combout\ $end
$var wire 1 C \s_count[3]~41\ $end
$var wire 1 D \s_count[4]~42_combout\ $end
$var wire 1 E \s_count[4]~43\ $end
$var wire 1 F \s_count[5]~44_combout\ $end
$var wire 1 G \s_count[5]~45\ $end
$var wire 1 H \s_count[6]~46_combout\ $end
$var wire 1 I \Equal0~0_combout\ $end
$var wire 1 J \s_count[6]~47\ $end
$var wire 1 K \s_count[7]~48_combout\ $end
$var wire 1 L \s_count[7]~49\ $end
$var wire 1 M \s_count[8]~50_combout\ $end
$var wire 1 N \s_count[8]~51\ $end
$var wire 1 O \s_count[9]~52_combout\ $end
$var wire 1 P \s_count[9]~53\ $end
$var wire 1 Q \s_count[10]~54_combout\ $end
$var wire 1 R \Equal0~1_combout\ $end
$var wire 1 S \s_count[10]~55\ $end
$var wire 1 T \s_count[11]~56_combout\ $end
$var wire 1 U \s_count[11]~57\ $end
$var wire 1 V \s_count[12]~58_combout\ $end
$var wire 1 W \s_count[12]~59\ $end
$var wire 1 X \s_count[13]~60_combout\ $end
$var wire 1 Y \s_count[13]~61\ $end
$var wire 1 Z \s_count[14]~62_combout\ $end
$var wire 1 [ \Equal0~2_combout\ $end
$var wire 1 \ \s_count[14]~63\ $end
$var wire 1 ] \s_count[15]~64_combout\ $end
$var wire 1 ^ \s_count[15]~65\ $end
$var wire 1 _ \s_count[16]~66_combout\ $end
$var wire 1 ` \s_count[16]~67\ $end
$var wire 1 a \s_count[17]~68_combout\ $end
$var wire 1 b \s_count[17]~69\ $end
$var wire 1 c \s_count[18]~70_combout\ $end
$var wire 1 d \Equal0~3_combout\ $end
$var wire 1 e \Equal0~4_combout\ $end
$var wire 1 f \s_count[18]~71\ $end
$var wire 1 g \s_count[19]~72_combout\ $end
$var wire 1 h \s_count[19]~73\ $end
$var wire 1 i \s_count[20]~74_combout\ $end
$var wire 1 j \s_count[20]~75\ $end
$var wire 1 k \s_count[21]~76_combout\ $end
$var wire 1 l \s_count[21]~77\ $end
$var wire 1 m \s_count[22]~78_combout\ $end
$var wire 1 n \Equal0~5_combout\ $end
$var wire 1 o \s_count[22]~79\ $end
$var wire 1 p \s_count[23]~80_combout\ $end
$var wire 1 q \s_count[23]~81\ $end
$var wire 1 r \s_count[24]~82_combout\ $end
$var wire 1 s \s_count[24]~83\ $end
$var wire 1 t \s_count[25]~84_combout\ $end
$var wire 1 u \s_count[25]~85\ $end
$var wire 1 v \s_count[26]~86_combout\ $end
$var wire 1 w \Equal0~6_combout\ $end
$var wire 1 x \s_count[26]~87\ $end
$var wire 1 y \s_count[27]~88_combout\ $end
$var wire 1 z \s_count[27]~89\ $end
$var wire 1 { \s_count[28]~90_combout\ $end
$var wire 1 | \Equal0~7_combout\ $end
$var wire 1 } \s_count[28]~91\ $end
$var wire 1 ~ \s_count[29]~92_combout\ $end
$var wire 1 !! \s_count[29]~93\ $end
$var wire 1 "! \s_count[30]~94_combout\ $end
$var wire 1 #! \s_count[30]~95\ $end
$var wire 1 $! \s_count[31]~96_combout\ $end
$var wire 1 %! \Equal0~8_combout\ $end
$var wire 1 &! \Equal0~9_combout\ $end
$var wire 1 '! \Equal0~10_combout\ $end
$var wire 1 (! \timerOut~1_combout\ $end
$var wire 1 )! \timerOut~2_combout\ $end
$var wire 1 *! \timerOut~reg0_q\ $end
$var wire 1 +! s_count [31] $end
$var wire 1 ,! s_count [30] $end
$var wire 1 -! s_count [29] $end
$var wire 1 .! s_count [28] $end
$var wire 1 /! s_count [27] $end
$var wire 1 0! s_count [26] $end
$var wire 1 1! s_count [25] $end
$var wire 1 2! s_count [24] $end
$var wire 1 3! s_count [23] $end
$var wire 1 4! s_count [22] $end
$var wire 1 5! s_count [21] $end
$var wire 1 6! s_count [20] $end
$var wire 1 7! s_count [19] $end
$var wire 1 8! s_count [18] $end
$var wire 1 9! s_count [17] $end
$var wire 1 :! s_count [16] $end
$var wire 1 ;! s_count [15] $end
$var wire 1 <! s_count [14] $end
$var wire 1 =! s_count [13] $end
$var wire 1 >! s_count [12] $end
$var wire 1 ?! s_count [11] $end
$var wire 1 @! s_count [10] $end
$var wire 1 A! s_count [9] $end
$var wire 1 B! s_count [8] $end
$var wire 1 C! s_count [7] $end
$var wire 1 D! s_count [6] $end
$var wire 1 E! s_count [5] $end
$var wire 1 F! s_count [4] $end
$var wire 1 G! s_count [3] $end
$var wire 1 H! s_count [2] $end
$var wire 1 I! s_count [1] $end
$var wire 1 J! s_count [0] $end
$upscope $end
$upscope $end
$enddefinitions $end
#0
$dumpvars
0!
0"
1#
0$
0%
0&
1'
x(
1)
1*
1+
1,
1-
1.
0/
10
01
02
03
04
05
16
07
18
09
0:
0;
1<
1=
0>
0?
0@
0A
1B
1C
0D
0E
0F
1G
0H
1I
0J
0K
1L
0M
0N
0O
1P
0Q
1R
0S
0T
1U
0V
0W
0X
1Y
0Z
1[
0\
0]
1^
0_
0`
0a
1b
0c
1d
1e
0f
0g
1h
0i
0j
0k
1l
0m
1n
0o
0p
1q
0r
0s
0t
1u
0v
1w
0x
0y
1z
0{
1|
0}
0~
1!!
0"!
0#!
0$!
1%!
1&!
1'!
0(!
0)!
0*!
0+!
0,!
0-!
0.!
0/!
00!
01!
02!
03!
04!
05!
06!
07!
08!
09!
0:!
0;!
0<!
0=!
0>!
0?!
0@!
0A!
0B!
0C!
0D!
0E!
0F!
0G!
0H!
0I!
0J!
$end
#10000
1!
1/
15
#20000
0!
0/
05
#30000
1!
1/
15
#40000
0!
1$
0/
12
1;
05
1(!
#50000
1!
1/
15
#60000
0!
1"
0#
0/
11
00
06
17
05
0B
1)!
#70000
1!
1/
15
1J!
1*!
08
19
0I
0e
1:
14
0&!
13
1%
1A
0'!
#80000
0!
0$
0/
02
0;
05
#90000
1!
1/
15
1I!
0J!
18
09
1I
0:
0=
1>
1e
1:
1=
0>
1&!
#100000
0!
0/
05
#110000
1!
1/
15
1J!
08
19
0I
0e
0:
0=
1>
0&!
#120000
0!
0/
05
#130000
1!
1/
15
0I!
1H!
0J!
18
09
1I
0>
1?
1:
1=
1>
0?
1@
1e
0:
1&!
0@
#140000
0!
0/
05
#150000
1!
1/
15
1J!
08
19
0I
0e
1:
0&!
#160000
0!
0/
05
#170000
1!
1/
15
1I!
0J!
18
09
1I
0:
0=
0>
1?
1e
1:
1=
1>
0?
1&!
1@
0@
#180000
0!
0/
05
#190000
1!
1/
15
1J!
08
19
0I
0e
0:
0=
0>
1?
0&!
1@
#200000
0!
0/
05
#210000
1!
1/
15
0I!
0H!
1G!
0J!
18
09
1I
0@
0C
1>
0?
1:
1=
0>
1@
1C
1D
1e
0:
1&!
0D
#220000
0!
0/
05
#230000
1!
1/
15
1J!
08
19
0I
0e
1:
0&!
#240000
0!
1$
0/
12
1;
05
#250000
1!
1/
15
1I!
0J!
18
09
1I
0:
0=
1>
1e
1:
1=
0>
1&!
#260000
0!
0/
05
#270000
1!
1/
15
1J!
08
19
0I
0e
0:
0=
1>
0&!
#280000
0!
0/
05
#290000
1!
0$
1/
02
0;
15
0I!
1H!
0J!
18
09
1I
0>
1?
1:
1=
1>
0?
0@
0C
1e
0:
1&!
1D
1@
1C
0D
#300000
0!
0/
05
#310000
1!
1/
15
1J!
08
19
0I
0e
1:
0&!
#320000
0!
0"
0/
01
07
05
0<
#330000
1!
1/
15
#340000
0!
0/
05
#350000
1!
1/
15
#360000
0!
0/
05
#370000
1!
1/
15
#380000
0!
0/
05
#390000
1!
1/
15
#400000
0!
1"
0/
11
17
05
1<
#410000
1!
1/
15
1I!
0J!
18
09
1I
0:
0=
0>
1?
1e
1:
1=
1>
0?
1&!
0@
0C
1D
0A
1@
1C
0D
1B
0(!
0)!
#420000
0!
0/
05
#430000
1!
1/
15
0I!
0H!
0G!
0*!
0@
0>
0:
1'!
0<
04
03
0%
#440000
0!
0/
05
#450000
1!
1/
15
#460000
0!
0/
05
#470000
1!
1/
15
#480000
0!
0/
05
#490000
1!
1/
15
#500000
0!
0/
05
#510000
1!
1/
15
#520000
0!
0/
05
#530000
1!
1/
15
#540000
0!
0/
05
#550000
1!
1/
15
#560000
0!
0"
0/
01
07
05
#570000
1!
1$
1/
12
1;
15
0B
1(!
#580000
0!
0/
05
#590000
1!
1/
15
#600000
0!
1"
0/
11
17
05
1<
1)!
#610000
1!
1/
15
1J!
1*!
08
19
0I
0e
1:
14
0&!
13
1%
1A
0'!
#620000
0!
0/
05
#630000
1!
0$
1/
02
0;
15
1I!
0J!
18
09
1I
0:
0=
1>
1e
1:
1=
0>
1&!
#640000
0!
0/
05
#650000
1!
1/
15
1J!
08
19
0I
0e
0:
0=
1>
0&!
#660000
0!
0/
05
#670000
1!
1/
15
0I!
1H!
0J!
18
09
1I
0>
1?
1:
1=
1>
0?
1@
1e
0:
1&!
0@
#680000
0!
0/
05
#690000
1!
1/
15
1J!
08
19
0I
0e
1:
0&!
#700000
0!
0/
05
#710000
1!
1/
15
1I!
0J!
18
09
1I
0:
0=
0>
1?
1e
1:
1=
1>
0?
1&!
1@
0@
#720000
0!
0/
05
#730000
1!
1/
15
1J!
08
19
0I
0e
0:
0=
0>
1?
0&!
1@
#740000
0!
0/
05
#750000
1!
1/
15
0I!
0H!
1G!
0J!
18
09
1I
0@
0C
1>
0?
1:
1=
0>
1@
1C
1D
1e
0:
1&!
0D
#760000
0!
0/
05
#770000
1!
1/
15
1J!
08
19
0I
0e
1:
0&!
#780000
0!
0/
05
#790000
1!
1/
15
1I!
0J!
18
09
1I
0:
0=
1>
1e
1:
1=
0>
1&!
#800000
0!
0/
05
#810000
1!
1/
15
1J!
08
19
0I
0e
0:
0=
1>
0&!
#820000
0!
0/
05
#830000
1!
1/
15
0I!
1H!
0J!
18
09
1I
0>
1?
1:
1=
1>
0?
0@
0C
1e
0:
1&!
1D
1@
1C
0D
#840000
0!
0/
05
#850000
1!
1/
15
1J!
08
19
0I
0e
1:
0&!
#860000
0!
0/
05
#870000
1!
1/
15
1I!
0J!
18
09
1I
0:
0=
0>
1?
1e
1:
1=
1>
0?
1&!
0@
0C
1D
0A
1@
1C
0D
1B
0(!
0)!
#880000
0!
0/
05
#890000
1!
1/
15
0I!
0H!
0G!
0*!
0@
0>
0:
1'!
0<
04
03
0%
#900000
0!
0/
05
#910000
1!
1/
15
#920000
0!
1$
0/
12
1;
05
1<
0B
1(!
1)!
#930000
1!
1/
15
1J!
1*!
08
19
0I
0e
1:
14
0&!
13
1%
1A
0'!
#940000
0!
0$
0/
02
0;
05
#950000
1!
1/
15
1I!
0J!
18
09
1I
0:
0=
1>
1e
1:
1=
0>
1&!
#960000
0!
0/
05
#970000
1!
1/
15
1J!
08
19
0I
0e
0:
0=
1>
0&!
#980000
0!
0/
05
#990000
1!
1/
15
0I!
1H!
0J!
18
09
1I
0>
1?
1:
1=
1>
0?
1@
1e
0:
1&!
0@
