1o2s/LSD/aulas/Aula4/Parte3/simulation/qsim/Counter_Demo.msim.vcd
$comment
	File created using the following command:
		vcd file Counter_Demo.msim.vcd -direction
$end
$date
	Tue Apr 05 10:20:48 2022
$end
$version
	ModelSim Version 2020.1
$end
$timescale
	1ps
$end

$scope module counterupdown4_vhd_vec_tst $end
$var wire 1 ! clk $end
$var wire 1 " count [3] $end
$var wire 1 # count [2] $end
$var wire 1 $ count [1] $end
$var wire 1 % count [0] $end
$var wire 1 & reset $end
$var wire 1 ' upDown $end

$scope module i1 $end
$var wire 1 ( gnd $end
$var wire 1 ) vcc $end
$var wire 1 * unknown $end
$var wire 1 + devoe $end
$var wire 1 , devclrn $end
$var wire 1 - devpor $end
$var wire 1 . ww_devoe $end
$var wire 1 / ww_devclrn $end
$var wire 1 0 ww_devpor $end
$var wire 1 1 ww_reset $end
$var wire 1 2 ww_clk $end
$var wire 1 3 ww_upDown $end
$var wire 1 4 ww_count [3] $end
$var wire 1 5 ww_count [2] $end
$var wire 1 6 ww_count [1] $end
$var wire 1 7 ww_count [0] $end
$var wire 1 8 \count[0]~output_o\ $end
$var wire 1 9 \count[1]~output_o\ $end
$var wire 1 : \count[2]~output_o\ $end
$var wire 1 ; \count[3]~output_o\ $end
$var wire 1 < \clk~input_o\ $end
$var wire 1 = \reset~input_o\ $end
$var wire 1 > \cntValue~3_combout\ $end
$var wire 1 ? \upDown~input_o\ $end
$var wire 1 @ \cntValue[1]~5_cout\ $end
$var wire 1 A \cntValue[1]~6_combout\ $end
$var wire 1 B \cntValue[1]~7\ $end
$var wire 1 C \cntValue[2]~8_combout\ $end
$var wire 1 D \cntValue[2]~9\ $end
$var wire 1 E \cntValue[3]~10_combout\ $end
$var wire 1 F cntValue [3] $end
$var wire 1 G cntValue [2] $end
$var wire 1 H cntValue [1] $end
$var wire 1 I cntValue [0] $end
$upscope $end
$upscope $end
$enddefinitions $end
#0
$dumpvars
1!
0&
1'
0(
1)
x*
1+
1,
1-
1.
1/
10
01
12
13
08
09
0:
0;
1<
0=
1>
1?
0@
0A
1B
0C
0D
0E
04
05
06
07
0F
0G
0H
0I
0"
0#
0$
0%
$end
#30000
0!
02
0<
#60000
1!
12
1<
1I
0>
1@
1A
18
17
1%
#90000
0!
02
0<
#120000
1!
12
1<
0I
1H
0A
0B
1>
0@
1A
1B
1C
19
08
0C
16
07
0%
1$
#150000
0!
02
0<
#170000
1&
11
1=
0>
#180000
1!
12
1<
0H
0A
09
06
0$
#190000
0&
01
0=
1>
#210000
0!
02
0<
#240000
1!
12
1<
1I
0>
1@
1A
18
17
1%
#270000
0!
02
0<
#300000
1!
12
1<
0I
1H
0A
0B
1>
0@
1A
1B
1C
19
08
0C
16
07
0%
1$
#330000
0!
02
0<
#360000
1!
12
1<
1I
0>
1@
0A
0B
18
1C
17
1%
#390000
0!
02
0<
#420000
1!
12
1<
0I
0H
1G
0C
1D
1A
1B
1>
0@
0A
1C
0D
1E
1:
09
08
0E
15
06
07
0%
0$
1#
#450000
0!
02
0<
#480000
1!
12
1<
1I
0>
1@
1A
18
17
1%
#500000
0'
03
0?
0A
0B
0C
1D
1E
0E
1C
#510000
0!
02
0<
#540000
1!
12
1<
0I
1>
0@
1A
1B
08
0C
07
0%
#570000
0!
02
0<
#600000
1!
12
1<
1I
1H
0G
1C
0D
0A
0B
0>
1@
1A
0C
1D
1E
0:
19
18
0E
05
16
17
1%
1$
0#
#630000
0!
02
0<
#650000
1&
11
1=
#660000
1!
12
1<
0I
0H
0A
0@
1A
1B
09
08
1C
0D
06
07
0%
0$
1E
#670000
0&
01
0=
1>
#690000
0!
02
0<
#720000
1!
12
1<
1I
1H
1G
1F
0E
0C
1D
0A
0B
0>
1@
1A
1C
1E
1;
1:
19
18
14
15
16
17
1%
1$
1#
1"
#750000
0!
02
0<
#780000
1!
12
1<
0I
1>
0@
0A
08
07
0%
#810000
0!
02
0<
#840000
1!
12
1<
1I
0H
1A
1B
0>
1@
0A
0B
0C
09
18
1C
06
17
1%
0$
#870000
0!
02
0<
#900000
1!
12
1<
0I
1>
0@
1A
1B
08
0C
07
0%
#930000
0!
02
0<
#960000
1!
12
1<
1I
1H
0G
1C
0D
0A
0B
0>
1@
1A
0C
1D
0E
0:
19
18
1E
05
16
17
1%
1$
0#
#990000
0!
02
0<
