1o2s/LSD/aulas/TESTING/Testing2/FASE2/simulation/qsim/PULSES_Demo.msim.vcd
$comment
	File created using the following command:
		vcd file PULSES_Demo.msim.vcd -direction
$end
$date
	Mon May 16 16:26:41 2022
$end
$version
	ModelSim Version 2020.1
$end
$timescale
	1ps
$end

$scope module pulses_curtos_vhd_vec_tst $end
$var wire 1 ! clk $end
$var wire 1 " pulse $end
$var wire 1 # reset $end

$scope module i1 $end
$var wire 1 $ gnd $end
$var wire 1 % vcc $end
$var wire 1 & unknown $end
$var wire 1 ' devoe $end
$var wire 1 ( devclrn $end
$var wire 1 ) devpor $end
$var wire 1 * ww_devoe $end
$var wire 1 + ww_devclrn $end
$var wire 1 , ww_devpor $end
$var wire 1 - ww_clk $end
$var wire 1 . ww_reset $end
$var wire 1 / ww_pulse $end
$var wire 1 0 \pulse~output_o\ $end
$var wire 1 1 \clk~input_o\ $end
$var wire 1 2 \reset~input_o\ $end
$var wire 1 3 \s_cnt~1_combout\ $end
$var wire 1 4 \s_cnt~2_combout\ $end
$var wire 1 5 \s_cnt~0_combout\ $end
$var wire 1 6 \pulse~0_combout\ $end
$var wire 1 7 \pulse~reg0_q\ $end
$var wire 1 8 s_cnt [2] $end
$var wire 1 9 s_cnt [1] $end
$var wire 1 : s_cnt [0] $end
$upscope $end
$upscope $end
$enddefinitions $end
#0
$dumpvars
0!
0"
0#
0$
1%
x&
1'
1(
1)
1*
1+
1,
0-
0.
0/
00
01
02
03
04
15
06
07
08
09
0:
$end
#10000
1!
1-
11
1:
13
05
#20000
0!
0-
01
#30000
1!
1-
11
19
0:
15
#40000
0!
0-
01
#50000
1!
1-
11
1:
03
14
05
#60000
0!
0-
01
#70000
1!
1-
11
09
18
0:
04
16
#80000
0!
0-
01
#90000
1!
1-
11
08
17
15
06
10
1/
1"
#100000
0!
0-
01
#110000
1!
1-
11
1:
07
13
05
00
0/
0"
#120000
0!
0-
01
#130000
1!
1-
11
19
0:
15
#140000
0!
0-
01
#150000
1!
1-
11
1:
03
14
05
#160000
0!
0-
01
#170000
1!
1-
11
09
18
0:
04
16
#180000
0!
0-
01
#190000
1!
1-
11
08
17
15
06
10
1/
1"
#200000
0!
0-
01
#210000
1!
1-
11
1:
07
13
05
00
0/
0"
#220000
0!
0-
01
#230000
1!
1-
11
19
0:
15
#240000
0!
0-
01
#250000
1!
1-
11
1:
03
14
05
#260000
0!
0-
01
#270000
1!
1-
11
09
18
0:
04
16
#280000
0!
0-
01
#290000
1!
1-
11
08
17
15
06
10
1/
1"
#300000
0!
0-
01
#310000
1!
1-
11
1:
07
13
05
00
0/
0"
#320000
0!
0-
01
#330000
1!
1-
11
19
0:
15
#340000
0!
0-
01
#350000
1!
1-
11
1:
03
14
05
#360000
0!
0-
01
#370000
1!
1-
11
09
18
0:
04
16
#380000
0!
0-
01
#390000
1!
1-
11
08
17
15
06
10
1/
1"
#400000
0!
0-
01
#410000
1!
1-
11
1:
07
13
05
00
0/
0"
#420000
0!
0-
01
#430000
1!
1-
11
19
0:
15
#440000
0!
0-
01
#450000
1!
1-
11
1:
03
14
05
#460000
0!
0-
01
#470000
1!
1-
11
09
18
0:
04
16
#480000
0!
0-
01
#490000
1!
1-
11
08
17
15
06
10
1/
1"
#500000
0!
0-
01
#510000
1!
1-
11
1:
07
13
05
00
0/
0"
#520000
0!
0-
01
#530000
1!
1-
11
19
0:
15
#540000
0!
0-
01
#550000
1!
1-
11
1:
03
14
05
#560000
0!
0-
01
#570000
1!
1-
11
09
18
0:
04
16
#580000
0!
0-
01
#590000
1!
1-
11
08
17
15
06
10
1/
1"
#600000
0!
0-
01
#610000
1!
1-
11
1:
07
13
05
00
0/
0"
#620000
0!
0-
01
#630000
1!
1-
11
19
0:
15
#640000
0!
0-
01
#650000
1!
1-
11
1:
03
14
05
#660000
0!
0-
01
#670000
1!
1-
11
09
18
0:
04
16
#680000
0!
0-
01
#690000
1!
1-
11
08
17
15
06
10
1/
1"
#700000
0!
0-
01
#710000
1!
1-
11
1:
07
13
05
00
0/
0"
#720000
0!
0-
01
#730000
1!
1-
11
19
0:
15
#740000
0!
0-
01
#750000
1!
1-
11
1:
03
14
05
#760000
0!
0-
01
#770000
1!
1-
11
09
18
0:
04
16
#780000
0!
0-
01
#790000
1!
1-
11
08
17
15
06
10
1/
1"
#800000
0!
0-
01
#810000
1!
1-
11
1:
07
13
05
00
0/
0"
#820000
0!
0-
01
#830000
1!
1-
11
19
0:
15
#840000
0!
0-
01
#850000
1!
1-
11
1:
03
14
05
#860000
0!
0-
01
#870000
1!
1-
11
09
18
0:
04
16
#880000
0!
0-
01
#890000
1!
1-
11
08
17
15
06
10
1/
1"
#900000
0!
0-
01
#910000
1!
1-
11
1:
07
13
05
00
0/
0"
#920000
0!
0-
01
#930000
1!
1-
11
19
0:
15
#940000
0!
0-
01
#950000
1!
1-
11
1:
03
14
05
#960000
0!
0-
01
#970000
1!
1-
11
09
18
0:
04
16
#980000
0!
0-
01
#990000
1!
1-
11
08
17
15
06
10
1/
1"
